{
    "relationships": [
        {
            "relationshipId": 1,
            "relationshipName": "serviceCategory",
            "relationshipNameCapitalized": "ServiceCategory",
            "relationshipFieldName": "serviceCategory",
            "otherEntityName": "serviceCategory",
            "relationshipType": "many-to-one",
            "otherEntityNameCapitalized": "ServiceCategory",
            "otherEntityField": "id"
        }
    ],
    "fields": [
        {
            "fieldId": 1,
            "fieldName": "name",
            "fieldType": "String",
            "fieldIsEnum": false,
            "fieldNameCapitalized": "Name",
            "fieldNameUnderscored": "name",
            "fieldInJavaBeanMethod": "Name",
            "fieldValidate": true,
            "fieldValidateRules": [
                "required"
            ]
        }
    ],
    "fieldsContainOwnerManyToMany": false,
    "fieldsContainOwnerOneToOne": false,
    "fieldsContainOneToMany": false,
    "fieldsContainLocalDate": false,
    "fieldsContainCustomTime": false,
    "fieldsContainBigDecimal": false,
    "fieldsContainDateTime": false,
    "fieldsContainDate": false,
    "changelogDate": "20150901001125",
    "dto": "no",
    "pagination": "no",
    "validation": true
}